^C:\USERS\LC\SOURCE\REPOS\BINTEMP\WIN32\EASYTCPCILENT\DEBUG\CLIENTCPP.OBJ
C:\USERS\LC\SOURCE\REPOS\BIN\WIN32\DEBUG\EASYTCPCILENT.EXE
C:\USERS\LC\SOURCE\REPOS\BIN\WIN32\DEBUG\EASYTCPCILENT.ILK
C:\USERS\LC\SOURCE\REPOS\BIN\WIN32\DEBUG\EASYTCPCILENT.PDB
