^C:\USERS\LC\SOURCE\REPOS\CONSOLEAPPLICATION2\CONSOLEAPPLICATION2\X64\DEBUG\CONSOLEAPPLICATION2.OBJ|C:\USERS\LC\SOURCE\REPOS\CONSOLEAPPLICATION2\CONSOLEAPPLICATION2\X64\DEBUG\PCH.OBJ
C:\USERS\LC\SOURCE\REPOS\CONSOLEAPPLICATION2\X64\DEBUG\CONSOLEAPPLICATION2.EXE
C:\USERS\LC\SOURCE\REPOS\CONSOLEAPPLICATION2\X64\DEBUG\CONSOLEAPPLICATION2.ILK
C:\USERS\LC\SOURCE\REPOS\CONSOLEAPPLICATION2\X64\DEBUG\CONSOLEAPPLICATION2.PDB
