^C:\USERS\LC\SOURCE\REPOS\HELLOSOCKET\EASYTCPSERVER\SERVER.CPP
C:\USERS\LC\SOURCE\REPOS\BINTEMP\WIN32\EASYTCPSERVER\DEBUG\VC141.PDB
C:\USERS\LC\SOURCE\REPOS\BINTEMP\WIN32\EASYTCPSERVER\DEBUG\VC141.IDB
C:\USERS\LC\SOURCE\REPOS\BINTEMP\WIN32\EASYTCPSERVER\DEBUG\SERVER.OBJ
